[api-updater (non-obsolete-error-filter)] 2021/11/14 23:00:37 : Starting /Applications/Unity/Hub/Editor/2020.3.21f1c1/Unity.app/Contents/Tools/ScriptUpdater/APIUpdater.NonObsoleteApiUpdaterDetector.exe
[api-updater (non-obsolete-error-filter)] 
----------------------------------
jit/startup time      : 61.019ms
moved types parse time: 51ms
candidates parse time : 1ms
C# parse time         : 270ms
candidates check time : 32ms
console write time    : 0ms

[api-updater (non-obsolete-error-filter)] 2021/11/20 12:54:17 : Starting /Applications/Unity/Hub/Editor/2020.3.21f1c1/Unity.app/Contents/Tools/ScriptUpdater/APIUpdater.NonObsoleteApiUpdaterDetector.exe
[api-updater (non-obsolete-error-filter)] 
----------------------------------
jit/startup time      : 46.897ms
moved types parse time: 47ms
candidates parse time : 1ms
C# parse time         : 230ms
candidates check time : 32ms
console write time    : 0ms

[api-updater (non-obsolete-error-filter)] 2021/11/23 0:24:06 : Starting /Applications/Unity/Hub/Editor/2020.3.21f1c1/Unity.app/Contents/Tools/ScriptUpdater/APIUpdater.NonObsoleteApiUpdaterDetector.exe
[api-updater (non-obsolete-error-filter)] 
----------------------------------
jit/startup time      : 102.202ms
moved types parse time: 53ms
candidates parse time : 1ms
C# parse time         : 268ms
candidates check time : 36ms
console write time    : 0ms

[api-updater (non-obsolete-error-filter)] 2021/12/11 21:57:48 : Starting /Applications/Unity/Hub/Editor/2020.3.23f1/Unity.app/Contents/Tools/ScriptUpdater/APIUpdater.NonObsoleteApiUpdaterDetector.exe
[api-updater (non-obsolete-error-filter)] 
----------------------------------
jit/startup time      : 169.351ms
moved types parse time: 61ms
candidates parse time : 1ms
C# parse time         : 311ms
candidates check time : 13ms
console write time    : 0ms

[api-updater (non-obsolete-error-filter)] 2021/12/12 0:12:52 : Starting /Applications/Unity/Hub/Editor/2020.3.23f1/Unity.app/Contents/Tools/ScriptUpdater/APIUpdater.NonObsoleteApiUpdaterDetector.exe
[api-updater (non-obsolete-error-filter)] 
----------------------------------
jit/startup time      : 137.214ms
moved types parse time: 51ms
candidates parse time : 1ms
C# parse time         : 293ms
candidates check time : 45ms
console write time    : 0ms

[api-updater (non-obsolete-error-filter)] 2021/12/12 0:40:28 : Starting /Applications/Unity/Hub/Editor/2020.3.23f1/Unity.app/Contents/Tools/ScriptUpdater/APIUpdater.NonObsoleteApiUpdaterDetector.exe
[api-updater (non-obsolete-error-filter)] 
----------------------------------
jit/startup time      : 64.398ms
moved types parse time: 47ms
candidates parse time : 1ms
C# parse time         : 265ms
candidates check time : 33ms
console write time    : 0ms

[api-updater (non-obsolete-error-filter)] 2021/12/12 0:40:40 : Starting /Applications/Unity/Hub/Editor/2020.3.23f1/Unity.app/Contents/Tools/ScriptUpdater/APIUpdater.NonObsoleteApiUpdaterDetector.exe
[api-updater (non-obsolete-error-filter)] 
----------------------------------
jit/startup time      : 55.381ms
moved types parse time: 51ms
candidates parse time : 1ms
C# parse time         : 273ms
candidates check time : 34ms
console write time    : 0ms

[api-updater (non-obsolete-error-filter)] 2021/12/12 0:41:39 : Starting /Applications/Unity/Hub/Editor/2020.3.23f1/Unity.app/Contents/Tools/ScriptUpdater/APIUpdater.NonObsoleteApiUpdaterDetector.exe
[api-updater (non-obsolete-error-filter)] 
----------------------------------
jit/startup time      : 56.135ms
moved types parse time: 52ms
candidates parse time : 1ms
C# parse time         : 256ms
candidates check time : 32ms
console write time    : 0ms

[api-updater (non-obsolete-error-filter)] 2021/12/12 18:12:30 : Starting /Applications/Unity/Hub/Editor/2020.3.23f1/Unity.app/Contents/Tools/ScriptUpdater/APIUpdater.NonObsoleteApiUpdaterDetector.exe
[api-updater (non-obsolete-error-filter)] 
----------------------------------
jit/startup time      : 163.817ms
moved types parse time: 60ms
candidates parse time : 1ms
C# parse time         : 363ms
candidates check time : 59ms
console write time    : 0ms

[api-updater (non-obsolete-error-filter)] 2021/12/12 21:33:56 : Starting /Applications/Unity/Hub/Editor/2020.3.23f1/Unity.app/Contents/Tools/ScriptUpdater/APIUpdater.NonObsoleteApiUpdaterDetector.exe
[api-updater (non-obsolete-error-filter)] 
----------------------------------
jit/startup time      : 136.072ms
moved types parse time: 62ms
candidates parse time : 1ms
C# parse time         : 337ms
candidates check time : 34ms
console write time    : 0ms

[api-updater (non-obsolete-error-filter)] 2021/12/12 21:46:09 : Starting /Applications/Unity/Hub/Editor/2020.3.23f1/Unity.app/Contents/Tools/ScriptUpdater/APIUpdater.NonObsoleteApiUpdaterDetector.exe
[api-updater (non-obsolete-error-filter)] 
----------------------------------
jit/startup time      : 159.37ms
moved types parse time: 60ms
candidates parse time : 1ms
C# parse time         : 368ms
candidates check time : 36ms
console write time    : 1ms

[api-updater (non-obsolete-error-filter)] 2021/12/12 21:46:12 : Starting /Applications/Unity/Hub/Editor/2020.3.23f1/Unity.app/Contents/Tools/ScriptUpdater/APIUpdater.NonObsoleteApiUpdaterDetector.exe
[api-updater (non-obsolete-error-filter)] 
----------------------------------
jit/startup time      : 62.053ms
moved types parse time: 54ms
candidates parse time : 1ms
C# parse time         : 244ms
candidates check time : 30ms
console write time    : 0ms

[api-updater (non-obsolete-error-filter)] 2021/12/12 22:05:11 : Starting /Applications/Unity/Hub/Editor/2020.3.23f1/Unity.app/Contents/Tools/ScriptUpdater/APIUpdater.NonObsoleteApiUpdaterDetector.exe
[api-updater (non-obsolete-error-filter)] 
----------------------------------
jit/startup time      : 143.571ms
moved types parse time: 58ms
candidates parse time : 1ms
C# parse time         : 325ms
candidates check time : 33ms
console write time    : 2ms

